%YAML 1.1
%TAG !u! tag:unity3d.com,2011:
--- !u!1045 &1
EditorBuildSettings:
  m_ObjectHideFlags: 0
  serializedVersion: 2
  m_Scenes:
  - enabled: 1
    path: Assets/Scenes/Main.unity
    guid: 9d0b58f16a8756044a2b4635ee513eaa
  - enabled: 1
    path: Assets/Scenes/Main_Menu.unity
    guid: 375762d3850da88409a4309141a2b7f6
  m_configObjects: {}
